[
    {
        "rank": 1,
        "title": "Inception",
        "year": "2010",
        "director": "Christopher Nolan"
    },
    {
        "rank": 2,
        "title": "Mad Max: Fury Road",
        "year": "2015",
        "director": "George Miller"
    },
    {
        "rank": 3,
        "title": "Interstellar",
        "year": "2014",
        "director": "Christopher Nolan"
    },
    {
        "rank": 4,
        "title": "Donnie Darko",
        "year": "2001",
        "director": "Richard Kelly"
    },
    {
        "rank": 5,
        "title": "Moon",
        "year": "2009",
        "director": "Duncan Jones"
    },
    {
        "rank": 6,
        "title": "The Martian",
        "year": "2015",
        "director": "Ridley Scott"
    },
    {
        "rank": 7,
        "title": "District 9",
        "year": "2009",
        "director": "Neill Blomkamp"
    },
    {
        "rank": 8,
        "title": "Avatar",
        "year": "2009",
        "director": "James Cameron"
    },
    {
        "rank": 9,
        "title": "Gravity",
        "year": "2013",
        "director": "Alfonso Cuarón"
    },
    {
        "rank": 10,
        "title": "Serenity",
        "year": "2005",
        "director": "Joss Whedon"
    },
    {
        "rank": 11,
        "title": "Guardians of the Galaxy",
        "year": "2014",
        "director": "James Gunn"
    },
    {
        "rank": 12,
        "title": "Monority Report",
        "year": "2002",
        "director": "Steven Spielberg"
    },
    {
        "rank": 13,
        "title": "Star Wars: The Force Awakens",
        "year": "2015",
        "director": "J. J. Abrams"
    },
    {
        "rank": 14,
        "title": "Star Trek",
        "year": "2009",
        "director": "J. J. Abrams"
    },
    {
        "rank": 15,
        "title": "The Avengers",
        "year": "2012",
        "director": "Joss Whedon"
    },
    {
        "rank": 16,
        "title": "Rise of the Planet of the Apes",
        "year": "2011",
        "director": "Rupert Wyatt"
    },
    {
        "rank": 17,
        "title": "Looper",
        "year": "2012",
        "director": "Rian Johnson"
    },
    {
        "rank": 18,
        "title": "Predestination",
        "year": "2014",
        "director": "The Spierig Brothers"
    },
    {
        "rank": 19,
        "title": "Edge of Tomorrow",
        "year": "2014",
        "director": "Doug Liman"
    },
    {
        "rank": 20,
        "title": "Star Trek: Into Darkness",
        "year": "2013",
        "director": "J. J. Abrams"
    }
]